Wall 20213
Window 16080
Chair 7971
Floor 7227
Sky 6328
Ceiling lamp 6268
Person 6202
Building 6043
Trees 5785
Ceiling 5284
Tree 4956
Car 4240
Door 4135
Cabinet 3102
Plant 3095
Table 2999
Painting 2784
Person sitting 2696
Curtain 2525
Grass 2427
Plants 2357
Road 2269
Buildings 2253
Cushion 2091
Mountain 1907
Books 1863
Picture 1822
Box 1746
Desk lamp 1702
Bed 1617
Bottle 1612
Sign 1525
Ground 1508
Column 1464
Sidewalk 1438
Pillow 1359
Person standing 1339
Flowers 1211
Fence 1151
Person walking 1142
Armchair 1080
Night table 1054
Sconce 1054
Skyscraper 993
Vase 990
Plant pot 987
Mirror 954
Streetlight 896
House 887
Tree trunk 878
Desk 872
Screen 865
Seat 855
Shelves 832
Pole 798
Faucet 784
Balcony 724
Railing 703
Sea water 694
Steps 688
Fluorescent tube 682
Basket 675
Ball 670
Plate 668
Bushes 654
Book 652
Stone 646
Shelf 631
Outlet 626
Sofa 622
Water 614
Seats 612
Glass 600
Text 594
Rock 589
Field 584
Stool 577
Towel 572
Stand 570
Bench 538
Boxes 536
Palm tree 533
Pane 532
Rug 508
Pot 497
Worktop 495
Clock 494
Staircase 479
Sink 464
Jar 461
Snowy mountain 457
Paper 453
Bag 448
Rocks 432
Poster 426
Chandelier 414
Path 414
Tray 391
Flag 389
Swivel chair 376
Washbasin 371
Handrail 370
Cabinets 358
Boat 349
Bookcase 340
Bucket 339
Coffee table 337
Stove 333
Cars 329
Cup 324
Toy 321
Television 317
Sculpture 309
Rocky mountain 303
Double door 302
Awning 300
River water 296
Toilet 293
Counter 287
Van 284
Bowl 283
Truck 279
Barrel 278
Switch 277
Drawer 276
Floor lamp 276
Hat 276
Wardrobe 272
Hedge 269
Candle 265
Statue 264
Spotlight 257
Beam 255
Stones 255
Grille 253
Shop window 253
Keyboard 250
Bottles 246
Bulletin board 245
Gate 245
Magazine 237
People 231
Refrigerator 231
Can 219
Shutter 219
Telephone 218
Countertop 217
Magazines 216
Napkin 215
Pipe 215
Shoes 214
Land 210
Handle 209
Hill 209
Sand beach 206
Showcase 206
Deck chair 203
Ottoman 203
Side table 202
Clothes 201
Microwave 199
Drawing 197
Merchandise 197
Mug 197
Door frame 195
Tombstone 195
Bus 193
Chimney 189
Videos 188
Monitor 186
Bridge 182
Ceiling fan 181
Air conditioning 180
Airplane 179
Bouquet 179
Cuddly toy 179
Grandstand 179
Step 179
Umbrella 174
Fireplace 173
Cow 172
Snow 170
Pottery 169
Chairs 168
Fish 162
Bathtube 157
Board 153
Extractor hood 153
Central reservation 151
Car rear 150
Windows 149
Purse 146
Small table 146
Arcade machine 142
Candleholder 140
Speaker 140
Cake 138
Oven 138
Entrance 137
Blanket 136
Shrub 136
Dishwasher 132
Carpet 131
Embankment 131
Traffic lights 131
Cpu 130
Place mat 130
Bar 129
Roof 129
Cakes 128
Dome 127
Teapot 126
Lamppost 125
Bicycle 121
Suitcase 121
Pitcher 120
Fluorescent tubes 118
Benches 117
Sneaker 116
Pallet 114
Coffee maker 113
Toilet paper 113
Tower 113
Attic 112
Tin 112
Trash can 112
Radiator 111
Shower 109
Tank 109
Backpack 107
Glass wall 107
Headstone 107
Apple 106
Drawers 106
Washing machine 106
Bathtub 105
Plates 105
Separation 105
Trolley 105
Pillar 104
Sand 104
Billiard table 103
Papers 103
Waterfall 103
